…
``` r
view(df_pols)
```

\#Now I will drop any missing values and reassess the data frame

``` r
df_pols %>% drop_na()
```

    ## # A tibble: 822 × 9
    ##    mon        prez_gop gov_gop sen_gop rep_gop prez_dem gov_dem sen_dem rep_dem
    ##    <date>        <dbl>   <dbl>   <dbl>   <dbl>    <dbl>   <dbl>   <dbl>   <dbl>
    ##  1 1947-01-15        0      23      51     253        1      23      45     198
    ##  2 1947-02-15        0      23      51     253        1      23      45     198
    ##  3 1947-03-15        0      23      51     253        1      23      45     198
    ##  4 1947-04-15        0      23      51     253        1      23      45     198
    ##  5 1947-05-15        0      23      51     253        1      23      45     198
    ##  6 1947-06-15        0      23      51     253        1      23      45     198
    ##  7 1947-07-15        0      23      51     253        1      23      45     198
    ##  8 1947-08-15        0      23      51     253        1      23      45     198
    ##  9 1947-09-15        0      23      51     253        1      23      45     198
    ## 10 1947-10-15        0      23      51     253        1      23      45     198
    ## # … with 812 more rows
…
``` r
view(df_snip_one)
```

\#Now I will drop any missing values and reassess the data frame

``` r
df_snip_one %>% drop_na()
```

    ## # A tibble: 787 × 2
    ##    date    close
    ##    <chr>   <dbl>
    ##  1 7/1/15  2080.
    ##  2 6/1/15  2063.
    ##  3 5/1/15  2107.
    ##  4 4/1/15  2086.
    ##  5 3/2/15  2068.
    ##  6 2/2/15  2104.
    ##  7 1/2/15  1995.
    ##  8 12/1/14 2059.
    ##  9 11/3/14 2068.
    ## 10 10/1/14 2018.
    ## # … with 777 more rows
…
\#There were no missing values

\#I will convert the 2 digit year date into a 4 digit year date

``` r
date_vector = df_snip_one %>% pull(date) %>% lubridate::mdy()
df_snip_two = mutate(df_snip_one, date = date_vector)
df_snip_two
```

    ## # A tibble: 787 × 2
    ##    date       close
    ##    <date>     <dbl>
    ##  1 2015-07-01 2080.
    ##  2 2015-06-01 2063.
    ##  3 2015-05-01 2107.
    ##  4 2015-04-01 2086.
    ##  5 2015-03-02 2068.
    ##  6 2015-02-02 2104.
    ##  7 2015-01-02 1995.
    ##  8 2014-12-01 2059.
    ##  9 2014-11-03 2068.
    ## 10 2014-10-01 2018.
    ## # … with 777 more rows
…
